HI all

This is source control session



by 
sandeep sankhla
                      where Id=: UserInfo.getUserId()]; 
            
            //If the contact id not equal to null, the function will call to fetch the contact information to show on VF page.                                      
            if(objUser != null)
            {
                smallPhotoUrl = objUser.smallPhotoUrl;
                idContact = objUser.ContactId;
                fetchContactInfo();
                getRelatedList();
            } 
                
           return null;
        }
        catch(Exception e)
        {
            return null;
        }
    }
    
    //To fetch the contact detail
    private void fetchContactInfo()
    {
        String fieldNames ='';
        
        String strQuery = 'Select Id'; 
        
        lstFieldSet = SObjectType.Contact.FieldSets.getMap().get('MyAccount').getFields();
        
        for(Schema.FieldSetMember field : lstFieldSet) 
                  fieldNames += ', ' + field.getFieldPath();
        
        
        lstFieldSet = SObjectType.Contact.FieldSets.getMap().get('dsdsdRC_My_Profile_Header').getFields();
        
        for(Schema.FieldSetMember field : lstFieldSet) 
        {